…
### Exercise 3: Example

``` r
#Example 1
#Type of group_by_x: numeric, Type of summarise_x: numeric
#The function is supposed to work and output corresponding summary statistics for the variable `diameter` grouped by `civic_number`.
example1 <- group_statistics(vancouver_trees, civic_number, diameter)
example1
```

    ## # A tibble: 8,349 × 6
    ##    civic_number  Mean Median range variance na.rm
    ##           <dbl> <dbl>  <dbl> <dbl>    <dbl> <lgl>
    ##  1            0  5.14   5      1      0.143 TRUE 
    ##  2            1 10.4   10     23     28.4   TRUE 
    ##  3            2 10.6    6.5   27.5   61.8   TRUE 
    ##  4            3  8.49   6.5   34     51.6   TRUE 
    ##  5            4 12.4   10.5   26.5   70.3   TRUE 
    ##  6            5  8.95   8     23     33.4   TRUE 
    ##  7            6 10.5    8.62  29.5   55.9   TRUE 
    ##  8            7 13.7   10.8   28     72.2   TRUE 
    ##  9            8 12.4   10.8   37.2   90.3   TRUE 
    ## 10            9 10.6    9.1   25.5   47.8   TRUE 
    ## # ℹ 8,339 more rows

``` r
#Example 2
#Type of group_by_x: character, Type of summarise_x: numeric
#The function is supposed to work and output corresponding summary statistics for the variable `diameter` grouped by `genus_name`
example2 <- group_statistics(vancouver_trees, genus_name, diameter)
example2
```

    ## # A tibble: 97 × 6
    ##    genus_name   Mean Median range variance na.rm
    ##    <chr>       <dbl>  <dbl> <dbl>    <dbl> <lgl>
    ##  1 ABIES       12.9   12     41.5    94.4  TRUE 
    ##  2 ACER        10.6    8    317      76.8  TRUE 
    ##  3 AESCULUS    23.7   25     64      91.5  TRUE 
    ##  4 AILANTHUS   15.9   19.5   18.5    74.7  TRUE 
    ##  5 ALBIZIA      6      6      0      NA    TRUE 
    ##  6 ALNUS       17.5   17.5   40      79.9  TRUE 
    ##  7 AMELANCHIER  3.21   3     20       3.22 TRUE 
    ##  8 ARALIA       6.81   6.12   9      15.4  TRUE 
    ##  9 ARAUCARIA   11.4    8.5   29      98.4  TRUE 
    ## 10 ARBUTUS     18.4   17.5   27     114.   TRUE 
    ## # ℹ 87 more rows

``` r
#Example 3
#Type of group_by_x: date, Type of summarise_x: numeric
#The function is supposed to work and output corresponding summary statistics for the variable `diameter` grouped by `date_planted`
example3 <- group_statistics(vancouver_trees, date_planted, diameter)
example3
```

    ## # A tibble: 3,995 × 6
    ##    date_planted  Mean Median range variance na.rm
    ##    <date>       <dbl>  <dbl> <dbl>    <dbl> <lgl>
    ##  1 1989-10-27   15.2   15.2   1.5      1.12 TRUE 
    ##  2 1989-10-30   12.8   13.8  11.5     19.6  TRUE 
    ##  3 1989-10-31   15.1   15.5   5.75     2.90 TRUE 
    ##  4 1989-11-02    9.41   7.75 16       25.7  TRUE 
    ##  5 1989-11-03   12     11     6        7.5  TRUE 
    ##  6 1989-11-06   13     13     8       32    TRUE 
    ##  7 1989-11-07   13.9   13.8  21.5     17.5  TRUE 
    ##  8 1989-11-08   11.5   11    21       15.5  TRUE 
    ##  9 1989-11-09    6.8    8    10       15.2  TRUE 
    ## 10 1989-11-10   14.6   16    21.5     30.5  TRUE 
    ## # ℹ 3,985 more rows
…
